hospital_stay_id;patient_identifier;hospital;admission_date;discharge_date
1;1;Hospital A;20200103;20200103
2;1;Hospital C;20210224;20210224
3;2;Hospital A;20210201;20210201
4;3;Hospital A;20210810;20210810
5;3;Hospital A;20210812;20210812
6;3;Hospital A;20210821;20210824
7;3;Hospital B;20210828;20210828
8;4;Hospital A;20210104;20210106
9;4;Hospital A;20210101;20210106
10;5;Hospital A;20210201;20210205
11;6;Hospital A;20210102;20210102
12;7;Hospital A;20210102;20210104
13;8;Hospital A;20210104;20210106
14;9;Hospital A;20210104;20210110
15;10;Hospital A;20210104;20210111
16;11;Hospital A;20210104;20210109
17;12;Hospital A;20210104;20210108
18;13;Hospital A;20210104;20210104
19;14;Hospital A;20210104;20210104
20;15;Hospital A;20210105;20210107
21;16;Hospital A;20210105;20210105
22;17;Hospital A;20210105;20210107
23;18;Hospital A;20210105;20210109
24;19;Hospital A;20210105;20210107
25;20;Hospital A;20210105;20210110
26;21;Hospital A;20210110;20210110
27;22;Hospital A;20210110;20210111
28;23;Hospital A;20210110;20210110
29;24;Hospital A;20210110;20210120
30;25;Hospital A;20210114;20210116
31;25;Hospital A;20210104;20210106
32;26;Hospital A;20210105;20210107
33;27;Hospital A;20210105;20210110
34;28;Hospital A;20210105;20210111
35;29;Hospital A;20210105;20210106
36;30;Hospital A;20210105;20210110
37;31;Hospital C;20210106;20210107
38;31;Hospital A;20210204;20210206
39;32;Hospital A;20210106;20210109
40;33;Hospital A;20210106;20210109
41;34;Hospital A;20210107;20210110
42;35;Hospital A;20210107;20210112
43;36;Hospital A;20210107;20210110
44;36;Hospital A;20210305;20210310
45;37;Hospital A;20210107;20210112
46;38;Hospital B;20210107;20210107
47;39;Hospital A;20210107;20210107
48;40;Hospital A;20210108;20210108
49;41;Hospital A;20210108;20210109
50;41;Hospital A;20210310;20210312
51;42;Hospital A;20210108;20210110
52;43;Hospital A;20210108;20210108
53;44;Hospital A;20210108;20210109
54;45;Hospital A;20210109;20210115
55;46;Hospital A;20210109;20210112
56;47;Hospital A;20210109;20210113
57;48;Hospital A;20210110;20210114
58;49;Hospital A;20210220;20210224
59;49;Hospital A;20210110;20210112
60;50;Hospital A;20210110;20210118
61;51;Hospital A;20210111;20210115
62;52;Hospital A;20200103;20200103
63;52;Hospital B;20210224;20210225
64;52;Hospital A;20210304;20210315
65;53;Hospital A;20210304;20210315
66;54;Hospital A;20210304;20210305
67;55;Hospital C;20210304;20210306
68;56;Hospital A;20210404;20210406
69;57;Hospital A;20200103;20200103
70;57;Hospital A;20210220;20210224
71;57;Hospital C;20210322;20210325
72;58;Hospital A;20210312;20210315
73;59;Hospital A;20200104;20200110
74;59;Hospital A;20210224;20210226
75;60;Hospital A;20210322;20210325
76;61;Hospital A;20210312;20210315
77;62;Hospital C;20200103;20200103
78;62;Hospital A;20210324;20210330
79;62;Hospital A;20210424;20210424
80;62;Hospital B;20210521;20210522
81;63;Hospital A;20210521;20210522
82;64;Hospital A;20210521;20210522
83;65;Hospital B;20200113;20200114
84;65;Hospital A;20210214;20210220
85;65;Hospital A;20210314;20210320
86;66;Hospital B;20200103;20200103
87;66;Hospital A;20210224;20210224
88;66;Hospital A;20210324;20210326
89;66;Hospital B;20210512;20210512
90;66;Hospital A;20210601;20210601
91;67;Hospital A;20200113;20200115
92;68;Hospital A;20200103;20200103
93;68;Hospital B;20210224;20210224
94;68;Hospital A;20210421;20210423
95;69;Hospital C;20200103;20200103
96;69;Hospital A;20210224;20210224
97;69;Hospital B;20210226;20210226
98;70;Hospital A;20200103;20200103
99;70;Hospital A;20210214;20210224
100;70;Hospital A;20210310;20210320
